/* XPM */
static char * fill_xpm[] = {
"16 16 10 1",
" 	c None",
".	c #745353",
"+	c #0C0C0C",
"@	c #C9B6B6",
"#	c #170E0E",
"$	c #9B7D7D",
"%	c #533535",
"&	c #251414",
"*	c #092DF7",
"=	c #0E0C0C",
"                ",
"                ",
"                ",
"                ",
"                ",
"       ..       ",
"      .++.      ",
"     @++++.     ",
"     #+++++.    ",
"    $+++++++.   ",
"    % &++++++.  ",
"   *$  &+++++&  ",
"   **   &+++=   ",
"   **    &++@   ",
"   **     &.    ",
" *****          "};
