/* XPM */
static char * locus_xpm[] = {
"48 48 3 1",
" 	c None",
".	c #FF0000",
"+	c #0000C7",
"                                                ",
"                       .                        ",
"                       .                        ",
"                       .                        ",
"                      ...                       ",
"++                     .                      ++",
"+++++                  .                   +++++",
"  +++++                .                 +++++  ",
"    +++++              .               +++++    ",
"      ++++            ...             ++++      ",
"        ++++           .            ++++        ",
"          +++          .           +++          ",
"           +++         .          +++           ",
"            +++        .         +++            ",
"             +++      ...       +++             ",
"              +++      .       +++              ",
"               ++      .       ++               ",
"                ++     .      ++                ",
"                +++    .     +++                ",
"                 ++   ...    ++                 ",
"                 ++    .     ++                 ",
"                  ++   .    ++                  ",
"                  ++   .    ++                  ",
"   .    .    .    ++   .    ++   .    .    .    ",
"..................++........++..................",
"   .    .    .    ++   .    ++   .    .    .    ",
"                  ++   . .. ++                  ",
"                  ++   ..  .++                  ",
"                 ++    ..  . ++                 ",
"                 ++   .....  ++                 ",
"                +++    .     +++                ",
"                ++     .      ++                ",
"               ++      .       ++               ",
"              +++      .       +++              ",
"             +++      ...       +++             ",
"            +++        .         +++            ",
"           +++         .          +++           ",
"         ++++          .           ++++         ",
"       ++++            .             ++++       ",
"     +++++            ...             +++++     ",
"   +++++               .                +++++   ",
" +++++                 .                  +++++ ",
"+++                    .                     +++",
"+                      .                       +",
"                      ...                       ",
"                       .                        ",
"                       .                        ",
"                       .                        "};
